*** Life<ConwayCell> 42x14 ***

Generation = 0, Population = 86.
*....*....*..*
.*.......*....
......*.....*.
.........*....
..............
.*.*.*........
..............
.........**..*
....*.........
.*..*.........
*...*...**....
...*..........
..*...........
......*.......
.*......*.....
........*..*..
........*.....
.............*
.*.*........*.
.......**.*...
.*....*..*....
..............
........***...
..............
*..........**.
..*..*........
..*.*.....*.*.
**.....*......
..........*...
........*.*...
*.*.**...***..
.*............
..*..**.......
...*.*........
.*...*..*.....
.........*....
....*......*..
.........**.*.
*.............
..*.......*...
*...*.........
...*..........

Generation = 1, Population = 57.
..............
..............
..............
..............
..............
..............
..............
..............
..............
...***........
...**.........
...*..........
..............
..............
.......*......
.......***....
..............
..............
..............
..*....***....
.......***....
........*.*...
.........*....
.........***..
..............
.*.*........*.
..**..........
.*.........*..
.........*....
..............
.*.......***..
.****.*...*...
..*.***.......
..*..*........
....*.........
..............
.........*.*..
..........**..
.........***..
.*............
...*..........
..............

Generation = 2, Population = 46.
..............
..............
..............
..............
..............
..............
..............
..............
....*.........
...*.*........
..*..*........
...**.........
..............
..............
.......*......
.......**.....
........*.....
..............
........*.....
.......*.*....
..........*...
.......*..*...
........*..*..
.........**...
..........**..
...*..........
.*.*..........
..*...........
..............
.........*....
.*.*.....***..
.*..*.*..***..
......*.......
......*.......
..............
..............
...........*..
............*.
.........*.*..
..........*...
..............
..............

Generation = 3, Population = 48.
..............
..............
..............
..............
..............
..............
..............
..............
....*.........
...*.*........
..*..*........
...**.........
..............
..............
.......**.....
.......**.....
.......**.....
..............
........*.....
........**....
........***...
.........***..
........*..*..
.........*....
.........***..
..*...........
...*..........
..*...........
..............
.........*....
..*.....*..*..
..*..*...*.*..
......**..*...
..............
..............
..............
..............
..........***.
..........**..
..........*...
..............
..............

Generation = 4, Population = 47.
..............
..............
..............
..............
..............
..............
..............
..............
....*.........
...*.*........
..*..*........
...**.........
..............
..............
.......**.....
......*..*....
.......**.....
.......**.....
........**....
.......*..*...
...........*..
...........*..
........*..*..
........**.*..
.........**...
..........*...
..**..........
..............
..............
..............
........**....
......****.*..
......*...*...
..............
..............
..............
...........*..
..........*.*.
.........*..*.
..........**..
..............
..............

Generation = 5, Population = 46.
..............
..............
..............
..............
..............
..............
..............
..............
....*.........
...*.*........
..*..*........
...**.........
..............
..............
.......**.....
......*..*....
......*..*....
..............
.........*....
........***...
..........**..
..........***.
........**.**.
........*..*..
........*..*..
.........**...
..............
..............
..............
..............
.........**...
......*.......
......*.***...
..............
..............
..............
...........*..
..........*.*.
.........*..*.
..........**..
..............
..............

Generation = 6, Population = 38.
..............
..............
..............
..............
..............
..............
..............
..............
....*.........
...*.*........
..*..*........
...**.........
..............
..............
.......**.....
......*..*....
..............
..............
........***...
........*..*..
............*.
..............
........**....
.......**..*..
........*..*..
.........**...
..............
..............
..............
..............
..............
.......**.....
.......*.*....
.........*....
..............
..............
...........*..
..........*.*.
.........*..*.
..........**..
..............
..............

Generation = 7, Population = 40.
..............
..............
..............
..............
..............
..............
..............
..............
....*.........
...*.*........
..*..*........
...**.........
..............
..............
.......**.....
.......**.....
..............
.........*....
........***...
........*.**..
..............
..............
.......***....
.......*..*...
.......**..*..
.........**...
..............
..............
..............
..............
..............
.......**.....
.......*.*....
........*.....
..............
..............
...........*..
..........*.*.
.........*..*.
..........**..
..............
..............

Generation = 8, Population = 44.
..............
..............
..............
..............
..............
..............
..............
..............
....*.........
...*.*........
..*..*........
...**.........
..............
..............
.......**.....
.......**.....
........*.....
........***...
........*..*..
........*.**..
..............
........*.....
.......***....
......*...*...
.......**..*..
........***...
..............
..............
..............
..............
..............
.......**.....
.......*.*....
........*.....
..............
..............
...........*..
..........*.*.
.........*..*.
..........**..
..............
..............

Generation = 9, Population = 48.
..............
..............
..............
..............
..............
..............
..............
..............
....*.........
...*.*........
..*..*........
...**.........
..............
..............
.......**.....
.........*....
..............
.......**.*...
.......**..*..
.........***..
.........*....
.......***....
.......***....
......*...*...
.......**..*..
.......****...
.........*....
..............
..............
..............
..............
.......**.....
.......*.*....
........*.....
..............
..............
...........*..
..........*.*.
.........*..*.
..........**..
..............
..............

Generation = 10, Population = 42.
..............
..............
..............
..............
..............
..............
..............
..............
....*.........
...*.*........
..*..*........
...**.........
..............
..............
........*.....
........*.....
........**....
.......***....
.......*...*..
.........*.*..
..............
.......*..*...
......*...*...
......*...*...
......*....*..
.......*..*...
.........**...
..............
..............
..............
..............
.......**.....
.......*.*....
........*.....
..............
..............
...........*..
..........*.*.
.........*..*.
..........**..
..............
..............

*** Life<ConwayCell> 40x11 ***

Generation = 0, Population = 95.
.......*...
*........*.
..*....*...
.*....*....
..*...*...*
...**......
*....*.*..*
......*....
..*...*....
*.*........
...*.......
*..........
**...*.....
*...**...*.
...........
....***....
..**....*..
....*..*...
*....*...**
.....*.**..
.*....*.*..
....***.*..
*..........
..*.*..*.*.
...*....*..
*..........
..**..*...*
*...*....*.
.*.*.....*.
.........*.
.*..*.*....
...*..*....
..........*
..*.*......
.**....**..
*..**......
....*.....*
**.......*.
.....*...*.
....*..*...

Generation = 3, Population = 79.
...........
...........
.**........
**....**...
.*.........
..*........
...*.......
...........
**.........
**.........
.*.........
...*.......
..*.**.....
.**.*.*....
..**..**...
..****..*..
..*..****..
..***....*.
...........
.....*.*.*.
....******.
...*.....*.
....**..*..
..*..*.***.
...........
.....*.....
....*......
..**.......
........*.*
.........*.
...........
...**......
...***.....
....**.....
....**.....
**..**.....
...........
...........
...........
...........

Generation = 6, Population = 53.
...........
**.........
**.........
*..........
.*.........
.*.........
...........
...........
...........
...........
...........
.....*.....
**....*....
.****..*...
..*******..
....**..**.
..**.......
.**........
........***
...........
....*.*....
..**.......
..***....*.
.........**
........**.
...........
...**......
...**......
...........
...........
...........
...........
...........
...........
....*......
....**.....
...........
...........
...........
...........

Generation = 9, Population = 52.
...........
...........
**.........
..*........
**.........
...........
...........
...........
...........
...........
...........
....**.....
**....*....
*..***.....
.****...**.
..*.......*
**.**...**.
.***......*
.........*.
.........*.
...........
...........
..*.*....*.
...*....*..
........***
.........**
...**......
...**......
...........
...........
...........
...........
...........
...........
....**.....
....**.....
...........
...........
...........
...........

*** Life<ConwayCell> 43x14 ***

Generation = 0, Population = 83.
...*....***...
*....**.....**
......*.....*.
..............
..........*.**
....*.....*...
..............
...*..........
***.*.*....*.*
*...**........
.*...*.*.....*
.........*....
..............
...*......*...
*..........*..
....*.........
............*.
.*..*.........
......*..*....
...*..........
.*............
....*..*....*.
..*....*......
*....*.*....*.
.............*
.........*.*.*
...*....*.*...
..*....*.....*
..............
.*............
.............*
..............
.*.*..........
..........*...
.........*....
..*.......*...
.............*
*.*...........
.*..........*.
......*....*..
..*...........
.*.....*......
....*..*......

Generation = 2, Population = 39.
......*.*.*.*.
.....*.**.**.*
.....*.*..*...
...........*.*
..........**..
..............
..*...........
*..*..........
*...*.........
*.*...........
....**........
.....*........
..............
..............
..............
..............
..............
..............
..............
..............
..............
..............
.......*......
.......*......
..............
........*.*.**
........*.*...
.........*....
..............
..............
..............
..............
..............
..............
..............
..............
..............
***...........
..............
..............
..............
..............
..............

Generation = 4, Population = 32.
.......*......
......*...*...
.......**.*.*.
........*...*.
..........*.*.
...........*..
..............
..*...........
**.*..........
..**.*........
......*.......
....**........
..............
..............
..............
..............
..............
..............
..............
..............
..............
..............
..............
..............
..............
..........**..
.........***..
.........**...
..............
..............
..............
..............
..............
..............
..............
..............
..............
***...........
..............
..............
..............
..............
..............

Generation = 6, Population = 23.
..............
........**....
......*.....*.
.......**...**
...........***
..............
..............
.***..........
*...*.........
.*...*........
...*.*........
..............
..............
..............
..............
..............
..............
..............
..............
..............
..............
..............
..............
..............
..............
..............
..............
..............
..............
..............
..............
..............
..............
..............
..............
..............
..............
***...........
..............
..............
..............
..............
..............

Generation = 8, Population = 16.
..............
..............
..............
.............*
............*.
............*.
.***..........
.*..*.........
.*.**.........
...*.*........
..............
..............
..............
..............
..............
..............
..............
..............
..............
..............
..............
..............
..............
..............
..............
..............
..............
..............
..............
..............
..............
..............
..............
..............
..............
..............
..............
***...........
..............
..............
..............
..............
..............

Generation = 10, Population = 16.
..............
..............
..............
..............
..............
.***..........
*..*..........
**..*.........
.*.*..........
..***.........
..............
..............
..............
..............
..............
..............
..............
..............
..............
..............
..............
..............
..............
..............
..............
..............
..............
..............
..............
..............
..............
..............
..............
..............
..............
..............
..............
***...........
..............
..............
..............
..............
..............

*** Life<ConwayCell> 42x17 ***

Generation = 0, Population = 80.
.............*...
..........*......
*.....*..........
...*........*..*.
....*.*...*......
...*.*...........
..*.****..*......
.................
.....*...........
.*..*.*..........
..........**.....
.......*.........
.................
...........*.....
..*..*...**......
.........*.....*.
......*..........
...*.......*.....
.................
.................
........*........
..*............*.
..*...*.......*..
.........*.......
......*..........
....*....*.......
............*...*
........*...*....
*.....*...*......
.*............*..
.........*.......
.*...*........*.*
*.*.*...........*
......*..........
.......*.........
.**............*.
........**.......
*.*..............
......**...*.*...
.................
*.............*..
.....*.....*.....

Generation = 9, Population = 9.
.................
.................
.................
.................
.....*...........
.................
...**............
...**............
....*............
.................
.................
.................
.................
.................
.................
.................
.................
.................
.................
.................
.................
.................
.................
.................
.................
.................
.................
.................
.................
.................
...............*.
...............*.
...............*.
.................
.................
.................
.................
.................
.................
.................
.................
.................

*** Life<ConwayCell> 50x15 ***

Generation = 0, Population = 81.
.*..*.*.*..**..
..............*
.......*...*...
...............
......*........
..*............
...............
*....*......*..
.......*.......
...............
......*.....*..
...............
.*..*..........
...............
.......*..*...*
...............
..*............
....*.*.....*..
*.........*....
...............
....**.........
....*.........*
*.......*......
.....*..*......
.........*.....
..*......*.....
.*....**.*..*..
...*..*.....*..
.....*.*..*...*
...........*...
.......**......
.**.*......*...
..............*
.......*.......
.........*..*..
..*............
....*..........
...............
.........*.....
........*......
...........*...
...............
....*.*.......*
...............
....*.*..*.....
...*...........
..........*....
*.........*....
...........*..*
.......**......

*** Life<ConwayCell> 44x12 ***

Generation = 0, Population = 85.
............
............
....*.*.....
...**....**.
............
........*...
*....*.*.**.
...*....*...
..*...*.*..*
..**..*.....
...........*
........*...
...*.*...*..
...*..*..**.
..*....*..*.
.......*.**.
....*.*...*.
.......*..*.
.....*....*.
..*.........
.*...*......
..*.*.*.....
.*...*......
...........*
....*.......
..........*.
.*.........*
........**..
..........*.
..*.........
...*.......*
......**....
...*......*.
..........**
............
*.....*...**
.*.*........
............
...........*
............
............
.*..*....***
.....*.***..
...........*

*** Life<ConwayCell> 44x11 ***

Generation = 0, Population = 58.
*.**.......
.*.........
*....*.....
...........
.....*...*.
...........
..........*
.....*.....
.*.........
..*........
.**..*.....
.*.....**..
.*.......*.
...........
.........*.
*....**....
...........
..*........
..*......*.
.**..*.....
...........
...........
...........
....**.....
....*..*..*
...........
......*....
...**...*..
..........*
....*...*..
*..*.......
...........
...........
.*.......*.
...........
.*.........
..*........
..........*
.......**..
...........
...........
......*....
.**..*.*...
....*.....*

Generation = 2, Population = 26.
*.*........
*.*........
.*.........
...........
...........
...........
...........
...........
...........
.**........
*.*........
***........
...........
...........
...........
...........
...........
...........
.***.......
.***.......
...........
...........
...........
....**.....
....**.....
...........
...........
...........
...........
...........
...........
...........
...........
...........
...........
...........
...........
...........
...........
...........
...........
.....**....
.....**....
...........

Generation = 4, Population = 23.
...........
.*.........
.*.........
...........
...........
...........
...........
...........
...........
.**........
*..*.......
*.*........
.*.........
...........
...........
...........
...........
..*........
.*.*.......
.*.*.......
..*........
...........
...........
....**.....
....**.....
...........
...........
...........
...........
...........
...........
...........
...........
...........
...........
...........
...........
...........
...........
...........
...........
.....**....
.....**....
...........

Generation = 6, Population = 21.
...........
...........
...........
...........
...........
...........
...........
...........
...........
.**........
*..*.......
*.*........
.*.........
...........
...........
...........
...........
..*........
.*.*.......
.*.*.......
..*........
...........
...........
....**.....
....**.....
...........
...........
...........
...........
...........
...........
...........
...........
...........
...........
...........
...........
...........
...........
...........
...........
.....**....
.....**....
...........

*** Life<ConwayCell> 41x15 ***

Generation = 0, Population = 81.
..*...*........
*..*...........
......*........
.*..*....*..*..
...........*...
....***.*......
...............
....*..*.......
...*......*....
.......*.......
*...*....*.*...
.....*...*....*
...*.......*.**
..........*...*
......*........
*.*.*...**.....
...............
..........*....
.*.............
..*......*..*.*
*..*...........
...*..*.....*..
............*..
..***..........
..*......*.....
.....*.........
*.......*...*..
*..............
.......*.....*.
....*.*....*...
...*...........
......*........
..*..**.....*..
......*........
..*..*.........
......*...*....
.......*.......
.........*....*
............*..
...............
.....*.........

Generation = 2, Population = 37.
...............
...............
...............
...............
...............
....***........
.....**........
...............
...............
.........*.....
.........*.*.*.
.........*.**.*
...............
.............**
...............
...............
...............
...............
...............
.***...........
.***...........
..*............
..*............
.**.*..........
..*............
...............
...............
...............
...............
...............
.....**........
....*..*.......
.......*.......
...............
.....***.......
.....**........
...............
...............
...............
...............
...............

Generation = 4, Population = 27.
...............
...............
...............
...............
.....*.........
....*.*........
...............
...............
...............
.........**....
.........*.*.*.
..........**..*
...........**..
...............
...............
...............
...............
...............
..*............
..*............
...............
...............
.**............
...............
.*.*...........
..*............
...............
...............
...............
...............
.....**........
.....*.........
......*........
......*........
.......**......
...............
...............
...............
...............
...............
...............

Generation = 6, Population = 20.
...............
...............
...............
...............
...............
...............
...............
...............
...............
.........***...
.........*.**..
.............*.
...........**..
...........*...
...............
...............
...............
...............
...............
...............
...............
...............
...............
...............
.**............
...............
...............
...............
...............
...............
.....**........
....*..........
.....**........
.....***.......
...............
...............
...............
...............
...............
...............
...............

Generation = 8, Population = 20.
...............
...............
...............
...............
...............
...............
...............
...............
..........**...
.........*..*..
.........*...*.
..........*..*.
..........*..*.
...........**..
...............
...............
...............
...............
...............
...............
...............
...............
...............
...............
...............
...............
...............
...............
...............
...............
...............
....**.........
....***........
.....*.*.......
......*........
...............
...............
...............
...............
...............
...............

Generation = 10, Population = 14.
...............
...............
...............
...............
...............
...............
...............
...............
..........***..
.........*...*.
........*.....*
..............*
.........**...*
...........**..
...............
...............
...............
...............
...............
...............
...............
...............
...............
...............
...............
...............
...............
...............
...............
...............
...............
...............
.....*.........
...............
...............
...............
...............
...............
...............
...............
...............

*** Life<ConwayCell> 49x18 ***

Generation = 0, Population = 76.
.......*....*.....
.....*............
*.................
..................
.*.*..*..*........
*.......*..*......
....*......*......
.......*..*.......
*.................
*........*........
*.............*...
.................*
..................
.................*
......*..*........
......*...........
.....*..........*.
..................
............*.....
............*.....
...*........*.....
...........*......
...*..*...........
..**..............
....*........*....
...........*......
......*.....*.....
.......*..........
.............*....
..................
..*...............
..................
**......*.........
.*...**........*..
......*..**..*...*
..................
..*...............
..*..*...*.....*..
..................
....**.....*......
.*................
*............*....
.......*..........
......*...........
....*........*....
..................
*.*....*..........
..............*..*
..................

Generation = 7, Population = 12.
..................
..................
..................
..................
..................
..........**......
..........**......
..................
..................
..................
..................
..................
..................
..................
..................
..................
..................
..................
..................
..................
..................
..................
...**.............
..*..*............
..*..*............
...**.............
..................
..................
..................
..................
..................
..................
..................
..................
..................
..................
..................
..................
..................
..................
..................
..................
..................
..................
..................
..................
..................
..................
..................

*** Life<ConwayCell> 50x13 ***

Generation = 0, Population = 84.
.............
.....*......*
.............
.........*...
.............
...*.*.......
......*....*.
........*.*..
.........*.*.
.....*...*.*.
....*........
.*.*.*.....**
*...*..*.*...
.....*.....*.
............*
*....*..*...*
.....*.......
..**........*
......*......
..........*..
.............
.....*.......
..*.....*....
...........**
........*....
....*.*...*..
........**...
..*..........
.............
**.........*.
...*.........
......*......
...*...*...*.
.....**......
.*.........*.
.......*....*
*.*....*.....
...*.........
..*..........
*......***...
........*....
.............
....*........
..*...**...*.
.............
.....*.....*.
.............
....*.....*..
.......*.....
......*......

*** Life<ConwayCell> 49x15 ***

Generation = 0, Population = 60.
...*...........
*...*...*......
...............
....*..........
....*..........
...*.....*.....
...............
.........*.....
..*............
*.*............
......*....*...
...*.........*.
...............
....*......*...
....*..........
...............
.*.............
...*.*.........
......*........
.......*...*...
.....*.........
..........*....
.....*........*
*...*..........
..*.*.*........
...............
....*......*.*.
......*.......*
*..............
.....*.........
...............
....*.*........
..*............
.........*.....
...*...........
.....*.........
...............
............*..
...............
*..............
*...*......*...
...............
..*............
...............
..............*
.....*........*
..*.*..*.......
...*...........
...............

Generation = 5, Population = 7.
...............
...............
...............
...............
...............
...............
...............
...............
...............
...............
...............
...............
...............
...............
...............
...............
...............
...............
...............
...............
...............
...............
...*...........
..*.*..........
...............
...............
...............
...............
...............
...............
...............
...............
...............
...............
...............
...............
...............
...............
...............
...............
...............
...............
...............
...............
...............
...............
...**..........
...**..........
...............

Generation = 10, Population = 4.
...............
...............
...............
...............
...............
...............
...............
...............
...............
...............
...............
...............
...............
...............
...............
...............
...............
...............
...............
...............
...............
...............
...............
...............
...............
...............
...............
...............
...............
...............
...............
...............
...............
...............
...............
...............
...............
...............
...............
...............
...............
...............
...............
...............
...............
...............
...**..........
...**..........
...............

*** Life<ConwayCell> 43x17 ***

Generation = 0, Population = 89.
........**.......
............*.*..
*.....*..........
.................
....*....*....*..
*......**.*......
.......*.........
......*......*...
..*..............
.........*...*...
*.*.....*........
..........*......
*......*...*..*..
.......*.........
.*...**..........
.........*.**....
............*.*..
*.....*..........
....*..*.........
..*..............
.*...............
...*..........*.*
.....*.........*.
..............*..
..*...*.........*
......*..........
.*.....*....*....
*...*...........*
.................
.....*..*.*...*..
.*............*..
*................
....*.......***..
*........*..*....
....**..........*
............*....
*................
.................
...*......*....**
.....*...........
....*...*..*..*..
.....*...*...*...
.................

Generation = 3, Population = 26.
.................
.................
.................
.................
.................
......***........
......**.........
.................
.................
.................
.................
.................
.................
.................
............*....
...........*.*...
...........*.*...
............*....
.................
.................
.................
..............*.*
.............*..*
..............*.*
.................
.................
.................
.................
.................
.................
.................
............**...
..............*..
............**...
.................
.................
.................
.................
.................
....**...........
....**...........
.................
.................

Generation = 6, Population = 18.
.................
.................
.................
.................
.......*.........
.......*.........
.................
.................
.................
.................
.................
.................
.................
.................
............*....
...........*.*...
...........*.*...
............*....
.................
.................
.................
..............**.
.............*..*
..............**.
.................
.................
.................
.................
.................
.................
.................
.................
.................
.................
.................
.................
.................
.................
.................
....**...........
....**...........
.................
.................

Generation = 9, Population = 16.
.................
.................
.................
.................
.................
.................
.................
.................
.................
.................
.................
.................
.................
.................
............*....
...........*.*...
...........*.*...
............*....
.................
.................
.................
..............**.
.............*..*
..............**.
.................
.................
.................
.................
.................
.................
.................
.................
.................
.................
.................
.................
.................
.................
.................
....**...........
....**...........
.................
.................

*** Life<ConwayCell> 50x19 ***

Generation = 0, Population = 85.
.*.................
...........**......
.*...............**
...**........*.....
...*....*.....*....
.........*.........
........*..........
....*..............
...................
.*.................
....*..*...........
....**..........*..
.*......*.........*
..*................
.........**......*.
...............*...
.............*..*..
..........*.......*
*.......*.........*
.....*............*
..............*....
...................
.*.*.............**
..........*...*...*
...................
...........*.......
...................
...*......*......*.
.....*.....*......*
....*....*.........
..........*........
...*...............
........*..........
...*...............
...*..*......*.....
*........**........
...*....*....*.....
...*...*...........
.......*.........*.
..........*........
..*................
.*.................
...................
.*.................
....*........*...*.
..*.....*..........
...................
............*......
.......*...........
......**...........

*** Life<ConwayCell> 44x18 ***

Generation = 0, Population = 81.
......*...........
..............*.*.
............*...*.
......*.....*.*...
....*............*
...*.*............
.*...*.*.**.....*.
...*.....*.*......
..................
......*...........
...*.....*..**....
.*.........*......
......**..........
.............*....
.........**..*.*..
..................
..*...............
..*.*........*....
................*.
.......*.........*
...............*..
................*.
.....*.**.........
....*...**........
....*.*..*.*......
..*............*..
..............*...
..............*.*.
..................
......**..........
.................*
..................
.*..........*.....
.*..............*.
..................
*..*..............
...............*..
..**..............
*.*.............*.
.....*............
...........*....*.
...*........*.....
..................
.....*.*..........

*** Life<ConwayCell> 41x13 ***

Generation = 0, Population = 64.
.............
...**......*.
.*.....*...**
*....*.......
.............
....*...*...*
..*....*....*
............*
*......*....*
.............
............*
.............
.............
*........*.**
..*...*......
...*..*......
.............
..*.**...*...
..*.....*....
.............
.............
.......*...*.
.......*.....
...*.......*.
..*.....*...*
.*........*..
........*....
..*..........
..*..........
*.*......**.*
.*...........
.........*...
.**..........
...........*.
.............
.............
........*....
.......*.**..
.............
.....**......
.*...........

Generation = 6, Population = 27.
.............
...........**
...........**
.............
.............
.............
...........**
...........**
.............
.............
.............
.............
.............
.............
.............
...**........
..*..*.......
..*.*........
...*.........
.............
.............
.............
.............
.............
.............
.............
.............
.............
.***.........
***.*........
*...*........
.***.........
.............
.............
.............
.............
.............
.............
.............
.............
.............
