*** Life<FredkinCell> 1x6 ***

Generation = 0, Population = 6.
000000

Generation = 5, Population = 4.
-0220-

Generation = 10, Population = 4.
3-22-3

*** Life<FredkinCell> 2x6 ***

Generation = 0, Population = 11.
000-00
000000

Generation = 5, Population = 3.
---1--
--2--1

Generation = 10, Population = 6.
02-4-2
3----2

Generation = 15, Population = 5.
-5-4--
-55-5-

*** Life<FredkinCell> 8x2 ***

Generation = 0, Population = 13.
00
--
-0
00
00
00
00
00

Generation = 2, Population = 9.
-2
10
-2
--
-2
22
--
00

Generation = 4, Population = 7.
-4
32
-4
--
--
--
-1
22

Generation = 6, Population = 8.
-6
54
--
02
--
33
-3
--

Generation = 8, Population = 7.
--
--
-5
24
-3
--
-5
33

Generation = 10, Population = 6.
-7
65
--
46
-5
--
--
--

*** Life<FredkinCell> 8x2 ***

Generation = 0, Population = 13.
0-
0-
0-
00
00
00
00
00

Generation = 5, Population = 5.
--
24
--
2-
--
3-
--
-3

Generation = 10, Population = 9.
2-
-6
-0
54
21
--
-1
3-

Generation = 15, Population = 6.
--
4-
--
-6
--
57
--
35

*** Life<FredkinCell> 6x2 ***

Generation = 0, Population = 2.
--
-0
--
--
--
-0

Generation = 2, Population = 1.
--
-0
--
--
--
--

Generation = 4, Population = 2.
--
-0
--
-0
--
--

Generation = 6, Population = 1.
--
--
--
--
--
-0

Generation = 8, Population = 1.
--
--
--
-0
--
--

Generation = 10, Population = 3.
--
-0
--
-0
--
-0

Generation = 12, Population = 2.
--
--
--
-0
--
-0

Generation = 14, Population = 2.
--
-0
--
--
--
-0

Generation = 16, Population = 1.
--
-0
--
--
--
--

Generation = 18, Population = 2.
--
-0
--
-0
--
--

Generation = 20, Population = 1.
--
--
--
--
--
-0

*** Life<FredkinCell> 9x2 ***

Generation = 0, Population = 18.
00
00
00
00
00
00
00
00
00

Generation = 2, Population = 14.
00
--
22
22
22
22
22
--
00

Generation = 4, Population = 14.
22
11
22
--
44
--
22
11
22

Generation = 6, Population = 18.
22
33
22
33
66
33
22
33
22

Generation = 8, Population = 14.
22
--
44
55
88
55
44
--
22

Generation = 10, Population = 14.
44
44
44
--
++
--
44
44
44

Generation = 12, Population = 18.
44
66
44
66
++
66
44
66
44

Generation = 14, Population = 14.
44
--
66
88
++
88
66
--
44

*** Life<FredkinCell> 8x4 ***

Generation = 0, Population = 10.
0---
-0-0
0---
--0-
00-0
-0-0
----
----

Generation = 2, Population = 18.
0-0-
-00-
0011
0---
-01-
-20-
01-1
-0-0

Generation = 4, Population = 16.
-121
---0
0-3-
2-0-
1-12
-4--
2---
-202

Generation = 6, Population = 20.
---1
1122
215-
-000
-1-4
14--
---3
0404

Generation = 8, Population = 17.
1-2-
---2
-173
2220
2-26
--11
----
-4-4

Generation = 10, Population = 17.
1222
2-4-
21-5
-4--
----
-511
2-14
--0-

*** Life<FredkinCell> 8x8 ***

Generation = 0, Population = 47.
--0-000-
000-0000
---00---
00000000
000-0-00
0000--00
00-00000
000000-0

Generation = 1, Population = 39.
0-1--1--
1--01111
--0-10--
-111--1-
1-1-1011
1-1-0-11
11-11111
-1-11-01

Generation = 2, Population = 30.
1----2-0
20012--2
0-1---00
-2-2002-
20-0----
-020--22
--0----2
-2---0--

Generation = 3, Population = 30.
2-10---1
3-1-3---
1-20----
031-----
311--0-1
--3-003-
-11--1-3
0---1-01

Generation = 4, Population = 32.
3--1--0-
-----1-2
-031----
142--0-0
-220-11-
10--1-42
-2-112-4
--01-01-

Generation = 5, Population = 34.
-01-0---
301-3-1-
--421---
2-32012-
33311--1
21-02---
-31-2--5
--1-1-2-

Generation = 6, Population = 26.
----120-
4121---2
--532---
344---3-
444-2---
-2--30--
---1-2--
--2-2---

Generation = 7, Population = 29.
301-2-1-
5-3-31--
-0643000
-55--1-0
----3-1-
-3----4-
-3---31-
-2-1----

Generation = 8, Population = 33.
----32-1
6--14-12
----4---
3---02-1
--41-12-
243-3--2
1-1124-5
03--202-

Generation = 9, Population = 26.
3----312
-132512-
------0-
-55---3-
---2--31
--4-40-3
------16
-4---13-

Generation = 10, Population = 28.
--11--23
-2---23-
---44--0
366--2--
-44-----
-4-051--
-31-24--
0-2-22--

Generation = 11, Population = 28.
--223--4
6----3-2
1--550--
47----31
-5--3---
2--16-4-
---1351-
-43---3-

Generation = 12, Population = 40.
303-4-25
723-54-3
--66----
--62--42
464-41-1
--4-7153
13--4-26
054-2-41

Generation = 13, Population = 34.
-1--533-
-342-534
1-7--00-
4-7---5-
5-52----
-45-8264
--11-537
-65-3---

Generation = 14, Population = 35.
32--64--
--5356-5
20--5-1-
------62
6663-1-1
-56-937-
-322--4-
07-1--41

Generation = 15, Population = 35.
43----35
-36---3-
31--6020
--720---
777442-2
-67-+4--
-43-----
1-5232-2

Generation = 16, Population = 30.
5----4-6
74735--5
4-7---31
-7-3126-
88-5----
-781--74
--4----7
-7---3--

Generation = 17, Population = 30.
6-32---7
8-8-6---
5-86----
487-----
997--2-2
--9-+48-
-45--5-8
1---3-42

*** Life<FredkinCell> 6x5 ***

Generation = 0, Population = 14.
0-0--
000-0
--0-0
000--
---0-
00---

Generation = 2, Population = 13.
2-2--
0020-
---0-
---0-
-00-1
2--1-

Generation = 4, Population = 13.
4--00
-04-2
1---2
--0--
0-2--
-10--

Generation = 6, Population = 16.
40-20
1--1-
1-01-
1----
0-2--
23-20

Generation = 8, Population = 14.
4-32-
-15--
---1-
111-0
0--02
2----

Generation = 10, Population = 20.
42--2
-352-
-02-3
1131-
01-22
45--2

Generation = 12, Population = 14.
--332
--7-3
1-4--
11---
2-32-
4-1--

Generation = 14, Population = 16.
-3332
-57--
3-6--
--521
23--3
-5--3

*** Life<FredkinCell> 1x2 ***

Generation = 0, Population = 2.
00

Generation = 1, Population = 2.
11

Generation = 2, Population = 2.
22

Generation = 3, Population = 2.
33

Generation = 4, Population = 2.
44

Generation = 5, Population = 2.
55

Generation = 6, Population = 2.
66

Generation = 7, Population = 2.
77

Generation = 8, Population = 2.
88

Generation = 9, Population = 2.
99

Generation = 10, Population = 2.
++

Generation = 11, Population = 2.
++

*** Life<FredkinCell> 4x4 ***

Generation = 0, Population = 16.
0000
0000
0000
0000

Generation = 3, Population = 8.
-33-
3--3
3--3
-33-

Generation = 6, Population = 8.
-66-
6--6
6--6
-66-

Generation = 9, Population = 8.
-99-
9--9
9--9
-99-

Generation = 12, Population = 8.
-++-
+--+
+--+
-++-

Generation = 15, Population = 8.
-++-
+--+
+--+
-++-

Generation = 18, Population = 8.
-++-
+--+
+--+
-++-

*** Life<FredkinCell> 9x6 ***

Generation = 0, Population = 36.
0-0-00
0000-0
00-00-
-0-0--
-00-00
0000-0
000-0-
000-00
-0-0-0

Generation = 4, Population = 30.
23---1
1-220-
0-0--2
0-0-11
221--2
-2--14
114-2-
0---0-
0--2-4

Generation = 8, Population = 32.
-52041
14-2--
01-4-6
23035-
241-32
--0--4
-3-0-0
0----0
-323--

Generation = 12, Population = 22.
--3---
1--233
---6--
644--2
--223-
------
3-80-2
-----2
-5276-

*** Life<FredkinCell> 7x5 ***

Generation = 0, Population = 32.
00000
00000
-0000
000-0
00000
00000
0000-

Generation = 4, Population = 17.
04-4-
-0-0-
-224-
-0---
-2-42
-0-0-
-440-

Generation = 8, Population = 17.
-4-8-
-0-0-
-4242
-0---
-4-4-
-0-0-
3440-

*** Life<FredkinCell> 2x7 ***

Generation = 0, Population = 12.
0000000
00-0-00

Generation = 2, Population = 8.
0-020-0
--121--

Generation = 4, Population = 12.
0104010
11-4-11

Generation = 6, Population = 8.
0-060-0
--262--

Generation = 8, Population = 12.
0208020
22-8-22

Generation = 10, Population = 8.
0-0+0-0
--3+3--

Generation = 12, Population = 12.
030+030
33-+-33

*** Life<FredkinCell> 7x4 ***

Generation = 0, Population = 23.
0-00
0---
0000
0000
0000
000-
0000

Generation = 5, Population = 17.
2-3-
0-01
---1
-00-
211-
-131
12-3

Generation = 10, Population = 12.
42-5
-0--
1---
----
5--1
5-83
4--5

Generation = 15, Population = 15.
6285
-1-3
-4-3
-2--
-38-
--+-
786-

*** Life<FredkinCell> 9x7 ***

Generation = 0, Population = 48.
0000000
0000000
00--0-0
00--000
0000000
00-0-00
00-0-0-
0--0-00
--00000

Generation = 3, Population = 33.
-3-3--0
3-111--
-1-1-00
31-0--1
1---303
-1--0--
10---1-
-010210
---31-1

Generation = 6, Population = 25.
-----1-
4-22422
4202011
3-----2
2------
-2--34-
-1-----
2---5--
1--4---

Generation = 9, Population = 38.
-445-21
722-53-
-31-122
-2----3
-0----5
-3-16-1
220--30
51--651
2-3513-

Generation = 12, Population = 33.
2--83-4
8334642
7----52
----4--
--04---
44-4-51
3312-4-
---2-5-
30-52--
